/////////////////////////////////////////////////////////////////////////////
// CYAN BASED
/////////////////////////////////////////////////////////////////////////////

material DebugCellColor00
{
	receive_shadows off
	technique
	{
		pass
		{
			ambient 0 1 1 1
			diffuse 0 1 1 1
			specular 0.500000 0.500000 0.500000 1.000000 12.500000
			emissive 0.000000 0.000000 0.000000 1.000000
		}
	}
}

material DebugCellColor01
{
	receive_shadows off
	technique
	{
		pass
		{
			ambient 0 0.5 1 1
			diffuse 0 0.5 1 1
			specular 0.500000 0.500000 0.500000 1.000000 12.500000
			emissive 0.000000 0.000000 0.000000 1.000000
		}
	}
}

material DebugCellColor02
{
	receive_shadows off
	technique
	{
		pass
		{
			ambient 0 1 0.5 1
			diffuse 0 1 0.5 1
			specular 0.500000 0.500000 0.500000 1.000000 12.500000
			emissive 0.000000 0.000000 0.000000 1.000000
		}
	}
}

/////////////////////////////////////////////////////////////////////////////
// MAGENTA BASED
/////////////////////////////////////////////////////////////////////////////

material DebugCellColor03
{
	receive_shadows off
	technique
	{
		pass
		{
			ambient 1 0 1 1
			diffuse 1 0 1 1
			specular 0.500000 0.500000 0.500000 1.000000 12.500000
			emissive 0.000000 0.000000 0.000000 1.000000
		}
	}
}

material DebugCellColor04
{
	receive_shadows off
	technique
	{
		pass
		{
			ambient 0.5 0 1 1
			diffuse 0.5 0 1 1
			specular 0.500000 0.500000 0.500000 1.000000 12.500000
			emissive 0.000000 0.000000 0.000000 1.000000
		}
	}
}

material DebugCellColor05
{
	receive_shadows off
	technique
	{
		pass
		{
			ambient 1 0 0.5 1
			diffuse 1 0 0.5 1
			specular 0.500000 0.500000 0.500000 1.000000 12.500000
			emissive 0.000000 0.000000 0.000000 1.000000
		}
	}
}

/////////////////////////////////////////////////////////////////////////////
// YELLOW BASED
/////////////////////////////////////////////////////////////////////////////

material DebugCellColor06
{
	receive_shadows off
	technique
	{
		pass
		{
			ambient 1 1 0 1
			diffuse 1 1 0 1
			specular 0.500000 0.500000 0.500000 1.000000 12.500000
			emissive 0.000000 0.000000 0.000000 1.000000
		}
	}
}

material DebugCellColor07
{
	receive_shadows off
	technique
	{
		pass
		{
			ambient 1 0.5 0 1
			diffuse 1 0.5 0 1
			specular 0.500000 0.500000 0.500000 1.000000 12.500000
			emissive 0.000000 0.000000 0.000000 1.000000
		}
	}
}

material DebugCellColor08
{
	receive_shadows off
	technique
	{
		pass
		{
			ambient 0.5 1 0 1
			diffuse 0.5 1 0 1
			specular 0.500000 0.500000 0.500000 1.000000 12.500000
			emissive 0.000000 0.000000 0.000000 1.000000
		}
	}
}

/////////////////////////////////////////////////////////////////////////////
// GREY BASED
/////////////////////////////////////////////////////////////////////////////

material DebugCellColor09
{
	receive_shadows off
	technique
	{
		pass
		{
			ambient 0.5 0.5 0.5 1
			diffuse 0.5 0.5 0.5 1
			specular 0.500000 0.500000 0.500000 1.000000 12.500000
			emissive 0.000000 0.000000 0.000000 1.000000
		}
	}
}

material DebugCellColor10
{
	receive_shadows off
	technique
	{
		pass
		{
			ambient 0.25 0.25 0.25 1
			diffuse 0.25 0.25 0.25 1
			specular 0.500000 0.500000 0.500000 1.000000 12.500000
			emissive 0.000000 0.000000 0.000000 1.000000
		}
	}
}

material DebugCellColor11
{
	receive_shadows off
	technique
	{
		pass
		{
			ambient 0.75 0.75 0.75 1
			diffuse 0.75 0.75 0.75 1
			specular 0.500000 0.500000 0.500000 1.000000 12.500000
			emissive 0.000000 0.000000 0.000000 1.000000
		}
	}
}