o terrain
v -19.012905 0.000000 -0.000000
v -15.768104 -0.000000 0.992044
v -18.383204 0.000000 -1.156580
v -14.558704 0.000000 -1.839190
v -11.691203 0.000000 -2.230211
v -14.363904 -0.000001 3.688011
v -9.859682 -0.000001 3.903731
v -9.790232 0.000000 -2.513700
v -8.689142 -0.000001 4.088801
v -4.221641 -0.000000 2.679131
v -10.299003 0.000001 -4.077671
v 8.876982 0.000000 -2.279221
v 4.221641 -0.000000 2.679131
v -3.852571 -0.000001 3.187121
v 3.852571 -0.000001 3.187121
v 4.045091 -0.000000 2.938931
v -2.679131 -0.000001 4.221641
v -0.000000 -0.000001 5.000001
v 0.626666 -0.000001 4.960571
v 3.422741 -0.000001 3.644841
v 3.433401 -0.000001 4.150271
v 2.828231 -0.000001 6.010292
v 4.609241 -0.000001 6.344081
v 3.710261 -0.000001 6.748942
v 5.187861 -0.000001 8.174762
v 2.480741 -0.000001 6.265652
v 1.427410 -0.000001 7.482771
v 1.975651 -0.000001 7.694642
v 2.469721 -0.000001 7.601032
v 4.365431 -0.000001 4.099411
v 0.350572 -0.000001 5.572182
v -0.626666 -0.000001 4.960571
v -0.313953 -0.000001 4.990131
v -2.204021 -0.000001 4.683781
v -3.143021 -0.000001 5.717131
v -1.371350 -0.000001 5.341072
v -2.775831 -0.000001 7.010942
v -2.690111 -0.000001 8.279292
v -1.041510 -0.000001 5.459782
v -2.938931 -0.000001 4.045091
v -3.422741 -0.000001 3.644841
v -3.801801 -0.000001 4.595591
v -4.653261 -0.000001 4.369701
v -4.045091 -0.000000 2.938931
v 7.430322 -0.000000 0.467476
v 5.266851 -0.000000 2.895471
v 8.321832 -0.000000 2.703931
v 10.546002 -0.000000 2.011760
v 11.966003 -0.000000 1.511660
v 10.977503 -0.000000 2.818541
v 8.638602 -0.000001 4.065021
v 12.691703 -0.000001 5.025011
v 9.536633 0.000000 -1.819211
v 10.031802 0.000000 0.000000
v 12.952904 0.000000 -1.636340
v 14.629204 0.000000 -0.920391
v -5.017201 0.000003 -19.540705
v -11.200903 0.000002 -11.927703
v -11.424103 0.000001 -7.249922
v -11.765702 0.000002 -9.733402
v -12.562203 0.000001 -9.126992
v -14.268503 0.000002 -13.399004
v -13.849604 0.000001 -6.517122
v -16.096004 0.000001 -8.848843
v -7.572412 0.000003 -19.125706
v -11.931803 0.000003 -16.422705
v -13.035703 0.000003 -15.757504
v -9.603962 0.000003 -20.409506
v -12.711802 0.000003 -20.030605
v -12.043803 0.000004 -21.907705
v -6.935142 0.000003 -21.344206
v 11.972703 0.000002 -11.243103
v 12.124803 0.000001 -7.694602
v 12.402403 0.000002 -10.260202
v 14.018804 0.000002 -10.185302
v 10.268803 0.000001 -3.336521
v 13.223703 0.000001 -6.222611
v 13.404604 0.000001 -7.369222
v 14.242003 0.000001 -5.638821
v -1.349030 0.000003 -21.442205
v -4.479431 0.000004 -23.482006
v -2.986351 0.000004 -23.639406
v 5.485111 0.000003 -21.363104
v 3.133331 0.000004 -24.802906
v 4.684531 0.000004 -24.557207
v 1.569760 0.000004 -24.950706
v 0.000000 0.000004 -25.000006
v 14.482803 0.000003 -15.422604
v 10.353903 0.000004 -22.003105
v 9.072232 0.000004 -22.913805
v 7.725422 0.000004 -23.776407
v 13.395703 0.000003 -21.108206
v 14.694603 0.000003 -20.225405
v 15.576003 0.000003 -18.828205
v 12.043803 0.000004 -21.907705
v -14.148403 0.000001 -4.597111
v -8.381992 -0.000001 4.608041
v -14.312202 -0.000001 4.650321
v -16.072205 -0.000000 3.065931
v -18.618004 -0.000000 2.352001
vn 0.000000 1.000000 0.000000
usemtl None
s off
f 1//1 2//1 3//1
f 2//1 4//1 3//1
f 4//1 2//1 5//1
f 2//1 6//1 5//1
f 6//1 7//1 5//1
f 7//1 8//1 5//1
f 7//1 9//1 8//1
f 8//1 9//1 10//1
f 11//1 8//1 10//1
f 12//1 11//1 10//1
f 13//1 12//1 10//1
f 10//1 14//1 13//1
f 14//1 15//1 13//1
f 13//1 15//1 16//1
f 15//1 14//1 17//1
f 15//1 17//1 18//1
f 15//1 18//1 19//1
f 20//1 15//1 19//1
f 19//1 21//1 20//1
f 19//1 22//1 21//1
f 21//1 22//1 23//1
f 22//1 24//1 23//1
f 24//1 25//1 23//1
f 26//1 22//1 19//1
f 19//1 27//1 26//1
f 28//1 26//1 27//1
f 29//1 26//1 28//1
f 20//1 30//1 15//1
f 31//1 19//1 18//1
f 18//1 17//1 32//1
f 33//1 18//1 32//1
f 34//1 32//1 17//1
f 17//1 35//1 34//1
f 36//1 32//1 34//1
f 34//1 37//1 36//1
f 36//1 37//1 38//1
f 39//1 32//1 36//1
f 40//1 17//1 14//1
f 14//1 41//1 40//1
f 42//1 40//1 41//1
f 43//1 41//1 14//1
f 10//1 44//1 14//1
f 45//1 12//1 13//1
f 13//1 46//1 45//1
f 46//1 47//1 45//1
f 47//1 48//1 45//1
f 48//1 49//1 45//1
f 47//1 50//1 48//1
f 46//1 51//1 47//1
f 47//1 51//1 52//1
f 45//1 53//1 12//1
f 45//1 54//1 53//1
f 54//1 55//1 53//1
f 54//1 56//1 55//1
f 11//1 12//1 57//1
f 57//1 58//1 11//1
f 59//1 11//1 58//1
f 59//1 58//1 60//1
f 61//1 59//1 60//1
f 60//1 58//1 62//1
f 63//1 11//1 59//1
f 63//1 59//1 64//1
f 58//1 57//1 65//1
f 58//1 65//1 66//1
f 67//1 58//1 66//1
f 68//1 66//1 65//1
f 69//1 66//1 68//1
f 69//1 68//1 70//1
f 65//1 57//1 71//1
f 72//1 57//1 12//1
f 72//1 12//1 73//1
f 73//1 74//1 72//1
f 73//1 75//1 74//1
f 12//1 76//1 73//1
f 76//1 77//1 73//1
f 77//1 78//1 73//1
f 76//1 79//1 77//1
f 72//1 80//1 57//1
f 57//1 80//1 81//1
f 81//1 80//1 82//1
f 80//1 72//1 83//1
f 84//1 80//1 83//1
f 84//1 83//1 85//1
f 86//1 80//1 84//1
f 87//1 80//1 86//1
f 83//1 72//1 88//1
f 88//1 89//1 83//1
f 83//1 89//1 90//1
f 83//1 90//1 91//1
f 92//1 89//1 88//1
f 88//1 93//1 92//1
f 88//1 94//1 93//1
f 95//1 89//1 92//1
f 96//1 8//1 11//1
f 9//1 97//1 10//1
f 98//1 7//1 6//1
f 99//1 6//1 2//1
f 99//1 2//1 100//1
