o terrain
v 1.012499 0.000002 -10.068090
v 0.000000 0.000001 -8.696551
v 2.119998 0.000001 -8.379992
v 2.119998 0.000002 -9.909990
v 2.024998 0.000002 -11.439689
v 2.072498 0.000002 -11.439889
v 2.119998 0.000002 -11.439989
v 2.116748 0.000001 -7.089993
v 2.740017 0.000001 -7.089993
v 2.739997 0.000001 -8.379992
v 3.359997 0.000001 -8.379992
v 3.363287 0.000001 -7.089993
v 7.809993 0.000001 -7.140143
v 7.809993 0.000001 -8.419992
v 3.693836 0.000002 -9.925891
v 3.359997 0.000001 -9.149772
v 3.669057 0.000002 -9.924730
v 3.637717 0.000002 -9.923800
v 3.599077 0.000002 -9.923000
v 3.552366 0.000002 -9.922271
v 3.359997 0.000002 -9.919560
v 3.712847 0.000002 -9.927331
v 3.726836 0.000002 -9.929151
v 3.736576 0.000002 -9.931411
v 3.742826 0.000002 -9.934180
v 3.746356 0.000002 -9.937561
v 7.809993 0.000001 -9.184991
v 7.584993 0.000002 -9.949990
v 3.747926 0.000002 -9.941601
v 7.532083 0.000002 -9.950061
v 7.487943 0.000002 -9.950320
v 7.451803 0.000002 -9.950801
v 7.422933 0.000002 -9.951560
v 7.400563 0.000002 -9.952650
v 7.383953 0.000002 -9.954121
v 7.372343 0.000002 -9.956020
v 7.364983 0.000002 -9.958391
v 7.361113 0.000002 -9.961290
v 7.359993 0.000002 -9.964761
v 5.588635 0.000002 -11.437490
v 7.360963 0.000002 -9.968201
v 7.364263 0.000002 -9.971120
v 7.370453 0.000002 -9.973580
v 8.237282 0.000002 -10.709990
v 8.750582 0.000002 -11.434989
v 7.380093 0.000002 -9.975620
v 7.393753 0.000002 -9.977301
v 7.411983 0.000002 -9.978690
v 7.435363 0.000002 -9.979820
v 7.464443 0.000002 -9.980761
v 7.499793 0.000002 -9.981550
v 7.541983 0.000002 -9.982261
v 7.723973 0.000002 -9.984990
v 5.077455 0.000002 -11.437889
v 3.748086 0.000002 -9.945681
v 4.591795 0.000002 -11.438089
v 3.746416 0.000002 -9.949080
v 4.138286 0.000002 -11.438189
v 3.742286 0.000002 -9.951880
v 3.735066 0.000002 -9.954171
v 3.723587 0.000002 -11.438189
v 3.724126 0.000002 -9.956020
v 3.314717 0.000002 -10.130191
v 3.708826 0.000002 -9.957520
v 3.688536 0.000002 -9.958751
v 3.662616 0.000002 -9.959781
v 3.630447 0.000002 -9.960711
v 3.394007 0.000002 -10.016090
v 3.591377 0.000002 -9.961600
v 3.565487 0.000002 -9.962211
v 3.540787 0.000002 -9.962931
v 3.517597 0.000002 -9.963711
v 3.496287 0.000002 -9.964571
v 3.477187 0.000002 -9.965461
v 3.426967 0.000002 -9.969991
v 3.460647 0.000002 -9.966391
v 3.429827 0.000002 -9.969140
v 3.447007 0.000002 -9.967320
v 3.436617 0.000002 -9.968241
v 3.200847 0.000002 -10.295390
v 3.064137 0.000002 -10.494290
v 3.354357 0.000002 -11.438089
v 2.916367 0.000002 -10.709789
v 3.037227 0.000002 -11.437889
v 2.769267 0.000002 -10.924689
v 2.634597 0.000002 -11.121989
v 2.778847 0.000002 -11.437590
v 2.524118 0.000002 -11.284389
v 2.585878 0.000002 -11.437189
v 2.449578 0.000002 -11.394789
v 2.464958 0.000002 -11.436689
v 2.422738 0.000002 -11.436089
v 7.809993 0.000002 -9.949990
v 8.424992 0.000001 -8.419992
v 8.422492 0.000001 -7.137573
v 9.034991 0.000001 -7.134993
v 9.039991 0.000001 -8.419992
v 11.114689 0.000001 -3.883446
v 11.189589 0.000001 -6.334684
v 11.127589 0.000001 -3.888786
v 11.139090 0.000001 -3.893536
v 11.148890 0.000001 -3.897596
v 11.156790 0.000001 -3.900846
v 11.162489 0.000001 -3.903186
v 11.189989 0.000001 -3.914386
v 9.039991 0.000002 -9.930540
v 11.189190 0.000001 -8.754992
v 10.160891 0.000002 -10.094991
v 9.132622 0.000002 -11.434989
v 9.086311 0.000002 -11.437989
v 9.039991 0.000002 -11.441089
v 11.100689 0.000001 -3.877616
v 11.085689 0.000001 -3.871426
v 11.070189 0.000001 -3.864966
v 11.054290 0.000001 -3.858346
v 11.038289 0.000001 -3.851686
v 10.950890 0.000001 -3.817426
v 10.579890 0.000001 -3.714476
v 10.675290 0.000001 -3.734986
v 10.861090 0.000001 -3.786516
v 10.769090 0.000001 -3.759017
v 9.034991 0.000001 -5.524995
v 9.342951 0.000001 -3.788796
v 9.434201 0.000001 -3.758826
v 10.483290 0.000001 -3.697546
v 9.524601 0.000001 -3.733356
v 10.385690 0.000001 -3.684246
v 9.614871 0.000001 -3.712257
v 10.287390 0.000001 -3.674646
v 9.705761 0.000001 -3.695357
v 10.188790 0.000001 -3.668787
v 10.089991 0.000001 -3.666737
v 9.797991 0.000001 -3.682507
v 9.989370 0.000001 -3.668346
v 9.892281 0.000001 -3.673556
v 9.250121 0.000001 -3.823436
v 9.154991 0.000001 -3.862886
v 9.034991 0.000001 -3.914996
v 3.356647 0.000001 -6.362494
v 7.810672 0.000001 -5.937574
v 3.355567 0.000001 -6.239174
v 3.354537 0.000001 -6.110914
v 3.353567 0.000001 -5.980154
v 3.352667 0.000001 -5.849344
v 3.351857 0.000001 -5.720914
v 3.351147 0.000001 -5.597315
v 3.350567 0.000001 -5.480985
v 3.350107 0.000001 -5.374355
v 7.811352 0.000001 -4.734995
v 3.349797 0.000001 -5.279875
v 3.349657 0.000001 -5.199995
v 3.349297 0.000001 -4.764996
v 5.583845 0.000000 -0.400000
v 6.357444 0.000000 -0.400000
v 8.094242 0.000000 -1.159159
v 6.605003 0.000000 -0.199588
v 6.988353 0.000000 -0.005000
v 6.920464 0.000000 -0.002088
v 6.852573 -0.000000 0.000824
v 8.503172 0.000001 -4.164366
v 9.197561 0.000000 -2.953527
v 9.200141 0.000000 -2.313318
v 9.194991 0.000001 -3.593726
v 4.810256 0.000000 -0.400000
v 2.640218 0.000001 -4.179996
v 3.087517 0.000000 -1.157479
v 1.930568 0.000000 -2.954977
v 1.929998 0.000000 -2.314968
v 1.931138 0.000001 -3.594996
v 4.589746 0.000000 -0.200000
v 4.245026 0.000000 0.000000
v 4.307136 0.000000 0.000000
v 4.369246 0.000000 0.000000
v 0.000128 0.000001 -6.305774
v 2.120878 0.000001 -5.504195
v 0.000256 0.000001 -3.914996
v 0.137628 0.000001 -3.857416
v 0.205360 0.000001 -3.829627
v 1.809958 0.000001 -3.793446
v 2.012368 0.000001 -3.869296
v 1.880538 0.000001 -3.817416
v 1.948258 0.000001 -3.842767
v 2.124998 0.000001 -3.918396
v 1.737248 0.000001 -3.771036
v 0.268712 0.000001 -3.804926
v 1.663158 0.000001 -3.750396
v 1.588428 0.000001 -3.731726
v 1.007609 0.000001 -3.670306
v 0.328641 0.000001 -3.783046
v 0.386107 0.000001 -3.763726
v 0.497478 0.000001 -3.731606
v 0.442066 0.000001 -3.746666
v 0.610487 0.000001 -3.706366
v 0.553298 0.000001 -3.718266
v 0.670002 0.000001 -3.695637
v 0.943868 0.000001 -3.671417
v 0.732802 0.000001 -3.685796
v 0.775212 0.000001 -3.680747
v 0.825784 0.000001 -3.676646
v 0.882631 0.000001 -3.673537
v 1.513789 0.000001 -3.715206
v 1.439999 0.000001 -3.701036
v 1.367789 0.000001 -3.689416
v 1.297889 0.000001 -3.680547
v 1.249909 0.000001 -3.676327
v 1.195009 0.000001 -3.673216
v 1.071969 0.000001 -3.670227
v 1.135069 0.000001 -3.671186
vn 0.000000 1.000000 0.000000
usemtl None
s off
f 1//1 2//1 3//1
f 1//1 3//1 4//1
f 1//1 4//1 5//1
f 4//1 6//1 5//1
f 4//1 7//1 6//1
f 3//1 2//1 8//1
f 8//1 9//1 3//1
f 3//1 9//1 10//1
f 10//1 9//1 11//1
f 11//1 9//1 12//1
f 12//1 13//1 11//1
f 13//1 14//1 11//1
f 14//1 15//1 11//1
f 11//1 15//1 16//1
f 17//1 16//1 15//1
f 18//1 16//1 17//1
f 18//1 19//1 16//1
f 19//1 20//1 16//1
f 21//1 16//1 20//1
f 22//1 15//1 14//1
f 23//1 22//1 14//1
f 24//1 23//1 14//1
f 25//1 24//1 14//1
f 26//1 25//1 14//1
f 26//1 14//1 27//1
f 27//1 28//1 26//1
f 29//1 26//1 28//1
f 30//1 29//1 28//1
f 31//1 29//1 30//1
f 32//1 29//1 31//1
f 33//1 29//1 32//1
f 34//1 29//1 33//1
f 35//1 29//1 34//1
f 36//1 29//1 35//1
f 37//1 29//1 36//1
f 38//1 29//1 37//1
f 39//1 29//1 38//1
f 40//1 29//1 39//1
f 39//1 41//1 40//1
f 41//1 42//1 40//1
f 42//1 43//1 40//1
f 40//1 43//1 44//1
f 44//1 45//1 40//1
f 44//1 43//1 46//1
f 44//1 46//1 47//1
f 44//1 47//1 48//1
f 44//1 48//1 49//1
f 44//1 49//1 50//1
f 44//1 50//1 51//1
f 44//1 51//1 52//1
f 52//1 53//1 44//1
f 40//1 54//1 29//1
f 55//1 29//1 54//1
f 56//1 55//1 54//1
f 56//1 57//1 55//1
f 56//1 58//1 57//1
f 59//1 57//1 58//1
f 60//1 59//1 58//1
f 60//1 58//1 61//1
f 62//1 60//1 61//1
f 61//1 63//1 62//1
f 63//1 64//1 62//1
f 65//1 64//1 63//1
f 66//1 65//1 63//1
f 67//1 66//1 63//1
f 68//1 67//1 63//1
f 69//1 67//1 68//1
f 70//1 69//1 68//1
f 71//1 70//1 68//1
f 72//1 71//1 68//1
f 73//1 72//1 68//1
f 74//1 73//1 68//1
f 68//1 75//1 74//1
f 76//1 74//1 75//1
f 77//1 76//1 75//1
f 76//1 77//1 78//1
f 79//1 78//1 77//1
f 61//1 80//1 63//1
f 81//1 80//1 61//1
f 81//1 61//1 82//1
f 83//1 81//1 82//1
f 84//1 83//1 82//1
f 85//1 83//1 84//1
f 84//1 86//1 85//1
f 86//1 84//1 87//1
f 88//1 86//1 87//1
f 89//1 88//1 87//1
f 90//1 88//1 89//1
f 91//1 90//1 89//1
f 90//1 91//1 92//1
f 28//1 27//1 93//1
f 14//1 13//1 94//1
f 13//1 95//1 94//1
f 95//1 96//1 94//1
f 96//1 97//1 94//1
f 97//1 96//1 98//1
f 99//1 97//1 98//1
f 100//1 99//1 98//1
f 101//1 99//1 100//1
f 102//1 99//1 101//1
f 103//1 99//1 102//1
f 104//1 99//1 103//1
f 104//1 105//1 99//1
f 106//1 97//1 99//1
f 106//1 99//1 107//1
f 106//1 107//1 108//1
f 106//1 108//1 109//1
f 109//1 110//1 106//1
f 110//1 111//1 106//1
f 98//1 96//1 112//1
f 113//1 112//1 96//1
f 114//1 113//1 96//1
f 96//1 115//1 114//1
f 115//1 96//1 116//1
f 116//1 96//1 117//1
f 96//1 118//1 117//1
f 117//1 118//1 119//1
f 117//1 119//1 120//1
f 119//1 121//1 120//1
f 96//1 122//1 118//1
f 122//1 123//1 118//1
f 118//1 123//1 124//1
f 124//1 125//1 118//1
f 124//1 126//1 125//1
f 126//1 127//1 125//1
f 126//1 128//1 127//1
f 128//1 129//1 127//1
f 129//1 128//1 130//1
f 129//1 130//1 131//1
f 130//1 132//1 131//1
f 132//1 130//1 133//1
f 134//1 132//1 133//1
f 135//1 134//1 133//1
f 136//1 123//1 122//1
f 137//1 136//1 122//1
f 138//1 137//1 122//1
f 12//1 139//1 13//1
f 13//1 139//1 140//1
f 141//1 140//1 139//1
f 142//1 140//1 141//1
f 143//1 140//1 142//1
f 144//1 140//1 143//1
f 144//1 145//1 140//1
f 145//1 146//1 140//1
f 146//1 147//1 140//1
f 147//1 148//1 140//1
f 140//1 148//1 149//1
f 150//1 149//1 148//1
f 151//1 149//1 150//1
f 152//1 149//1 151//1
f 152//1 153//1 149//1
f 153//1 154//1 149//1
f 155//1 149//1 154//1
f 156//1 155//1 154//1
f 157//1 155//1 156//1
f 158//1 157//1 156//1
f 159//1 158//1 156//1
f 155//1 160//1 149//1
f 161//1 160//1 155//1
f 155//1 162//1 161//1
f 161//1 163//1 160//1
f 164//1 153//1 152//1
f 152//1 165//1 164//1
f 166//1 164//1 165//1
f 165//1 167//1 166//1
f 168//1 166//1 167//1
f 167//1 165//1 169//1
f 170//1 164//1 166//1
f 171//1 170//1 166//1
f 172//1 170//1 171//1
f 173//1 170//1 172//1
f 174//1 8//1 2//1
f 174//1 175//1 8//1
f 174//1 176//1 175//1
f 176//1 177//1 175//1
f 178//1 175//1 177//1
f 178//1 179//1 175//1
f 180//1 175//1 179//1
f 180//1 179//1 181//1
f 180//1 181//1 182//1
f 180//1 183//1 175//1
f 178//1 184//1 179//1
f 178//1 185//1 184//1
f 185//1 186//1 184//1
f 186//1 185//1 187//1
f 188//1 187//1 185//1
f 185//1 189//1 188//1
f 189//1 190//1 188//1
f 191//1 188//1 190//1
f 190//1 192//1 191//1
f 193//1 188//1 191//1
f 193//1 191//1 194//1
f 188//1 193//1 195//1
f 196//1 188//1 195//1
f 195//1 197//1 196//1
f 196//1 197//1 198//1
f 198//1 199//1 196//1
f 196//1 199//1 200//1
f 188//1 201//1 187//1
f 188//1 202//1 201//1
f 188//1 203//1 202//1
f 188//1 204//1 203//1
f 188//1 205//1 204//1
f 188//1 206//1 205//1
f 188//1 207//1 206//1
f 206//1 207//1 208//1
