o terrain
v 5.114650 -0.000005 31.767651
v 5.258650 -0.000005 31.221649
v 5.000000 -0.000005 31.480350
v 5.373350 -0.000005 31.940350
v 5.460000 -0.000005 30.991650
v 6.092000 -0.000005 32.198349
v 5.718650 -0.000005 30.848351
v 6.034650 -0.000005 30.704350
v 6.436650 -0.000005 32.169651
v 6.752650 -0.000005 32.083649
v 6.293350 -0.000005 30.560350
v 7.068650 -0.000005 31.968998
v 6.609350 -0.000005 30.417000
v 7.385350 -0.000005 31.853649
v 6.839350 -0.000005 30.244350
v 7.701350 -0.000005 31.738998
v 7.098000 -0.000005 30.014999
v 7.327350 -0.000005 29.842350
v 8.218650 -0.000005 31.681650
v 7.586000 -0.000005 29.612350
v 8.850650 -0.000005 31.537649
v 8.563350 -0.000005 31.652351
v 9.052000 -0.000005 31.307650
v 7.844650 -0.000005 29.410999
v 8.103350 -0.000005 29.181650
v 9.454000 -0.000005 31.192999
v 8.362000 -0.000005 28.951649
v 8.620650 -0.000005 28.721649
v 10.718650 -0.000005 30.704350
v 10.517350 -0.000005 30.934351
v 10.287351 -0.000005 31.135651
v 10.028649 -0.000005 31.278999
v 9.712650 -0.000005 31.336349
v 8.850650 -0.000005 28.520351
v 9.080650 -0.000005 28.290350
v 9.281350 -0.000005 28.060350
v 11.063351 -0.000005 30.560350
v 9.540000 -0.000005 27.830999
v 9.770000 -0.000005 27.658350
v 11.350650 -0.000005 30.445650
v 10.000000 -0.000004 27.428350
v 10.258650 -0.000004 27.198351
v 10.517350 -0.000004 26.997650
v 11.638000 -0.000005 30.502998
v 10.747351 -0.000004 26.796350
v 10.976649 -0.000004 26.594999
v 11.235351 -0.000004 26.364998
v 13.563351 -0.000005 29.842350
v 11.465350 -0.000004 26.164351
v 11.724000 -0.000004 25.962999
v 13.850650 -0.000005 29.554998
v 12.241350 -0.000004 25.560350
v 12.500000 -0.000004 25.417000
v 12.816000 -0.000004 25.272999
v 13.132000 -0.000004 25.129650
v 13.419351 -0.000004 24.985649
v 13.735351 -0.000004 24.842350
v 14.052000 -0.000004 24.698351
v 14.626650 -0.000004 24.468998
v 14.339351 -0.000004 24.554998
v 14.942650 -0.000004 24.382351
v 15.230000 -0.000004 24.296350
v 15.517350 -0.000004 24.210350
v 15.804649 -0.000004 24.123650
v 17.500000 -0.000005 31.681650
v 17.011351 -0.000005 31.738998
v 16.609350 -0.000005 31.882351
v 16.379351 -0.000005 32.112350
v 16.149351 -0.000005 32.313648
v 15.919351 -0.000005 32.543648
v 15.402000 -0.000005 32.802349
v 15.690001 -0.000005 32.744350
v 13.793350 -0.000005 29.870998
v 13.677999 -0.000005 30.129650
v 15.114650 -0.000005 32.859650
v 14.741350 -0.000005 33.002998
v 13.103351 -0.000005 30.445650
v 14.454000 -0.000005 33.118351
v 14.109350 -0.000005 33.261650
v 13.046000 -0.000005 30.732998
v 12.902000 -0.000005 31.250351
v 13.218650 -0.000005 33.261650
v 12.701350 -0.000005 33.060997
v 12.930650 -0.000005 33.232998
v 12.644000 -0.000005 31.394350
v 12.471351 -0.000005 32.859650
v 12.327351 -0.000005 31.767651
v 12.327351 -0.000005 31.480350
v 12.241350 -0.000005 32.687000
v 11.896649 -0.000005 32.083649
v 12.040000 -0.000005 31.824999
v 11.954000 -0.000005 32.773651
v 11.408000 -0.000005 32.285000
v 11.724000 -0.000005 31.853649
v 11.293350 -0.000005 31.997650
v 11.523351 -0.000005 31.767651
v 11.752649 -0.000005 31.566351
v 11.925350 -0.000005 31.594999
v 11.896649 -0.000005 31.278999
v 12.184000 -0.000005 31.451649
v 11.982650 -0.000005 30.991650
v 12.414000 -0.000005 31.278999
v 12.557350 -0.000005 30.848351
v 11.839351 -0.000005 30.732998
v 12.730000 -0.000005 30.589649
v 12.644000 -0.000005 31.077650
v 12.758650 -0.000005 30.818998
v 11.666650 -0.000005 32.945648
v 11.264649 -0.000005 32.572350
v 11.408000 -0.000005 33.089649
v 11.063351 -0.000005 32.802349
v 11.149350 -0.000005 33.261650
v 10.919351 -0.000005 33.060997
v 13.793350 -0.000005 33.405651
v 13.506001 -0.000005 33.405651
v 16.149351 -0.000004 23.980350
v 19.626650 -0.000005 31.077650
v 16.723999 -0.000004 23.692999
v 16.408001 -0.000004 23.836349
v 17.040001 -0.000004 23.549000
v 19.885351 -0.000005 30.905649
v 17.298649 -0.000004 23.405649
v 20.114651 -0.000005 30.732998
v 19.942650 -0.000004 23.807650
v 20.373348 -0.000005 30.531651
v 20.114651 -0.000004 23.922998
v 20.402651 -0.000004 24.037649
v 21.638000 -0.000005 29.669649
v 20.718651 -0.000005 30.388351
v 21.465349 -0.000005 29.899651
v 21.006001 -0.000005 30.302351
v 21.322001 -0.000005 30.186998
v 21.896650 -0.000005 29.497650
v 22.126652 -0.000005 29.324999
v 22.356651 -0.000005 29.123650
v 22.586000 -0.000005 28.894350
v 22.816000 -0.000005 28.721649
v 23.074650 -0.000005 28.549000
v 20.718651 -0.000004 23.893650
v 23.563349 -0.000005 28.146999
v 23.793350 -0.000005 27.888351
v 21.006001 -0.000004 23.778999
v 21.293350 -0.000004 23.692999
v 21.638000 -0.000004 23.606350
v 24.023350 -0.000005 27.658350
v 24.339350 -0.000004 27.485649
v 24.598000 -0.000004 27.342350
v 22.643349 -0.000004 22.888351
v 24.914000 -0.000004 27.198351
v 25.230000 -0.000004 27.054998
v 22.873348 -0.000004 22.715649
v 25.517349 -0.000004 26.939650
v 23.103350 -0.000004 22.543650
v 23.390652 -0.000004 22.370998
v 25.804651 -0.000004 26.824999
v 26.177999 -0.000004 26.767651
v 23.850651 -0.000004 21.796350
v 23.591999 -0.000004 21.940350
v 23.333349 -0.000004 22.083649
v 24.080650 -0.000004 21.566351
v 26.552000 -0.000004 26.824999
v 25.287350 -0.000003 18.233000
v 25.114651 -0.000003 18.462999
v 24.942650 -0.000003 18.693001
v 24.425350 -0.000003 18.865000
v 23.764650 -0.000003 19.469000
v 23.793350 -0.000004 21.508999
v 23.476650 -0.000003 19.555000
v 22.500000 -0.000003 20.186998
v 23.476650 -0.000004 21.652351
v 23.132000 -0.000004 21.796350
v 22.212650 -0.000003 20.273649
v 22.844650 -0.000004 21.968998
v 21.868000 -0.000003 20.359650
v 22.586000 -0.000004 22.140999
v 21.982651 -0.000004 22.399651
v 22.327349 -0.000004 22.313650
v 21.638000 -0.000004 22.543650
v 20.172651 -0.000003 20.417000
v 21.695349 -0.000003 20.100998
v 20.144001 -0.000003 20.100998
v 20.114651 -0.000003 19.813650
v 20.344650 -0.000003 19.267651
v 20.890652 -0.000003 18.951649
v 20.603350 -0.000003 19.037649
v 22.068651 -0.000003 19.583649
v 21.293350 -0.000003 18.836349
v 22.098000 -0.000003 19.296350
v 21.580650 -0.000003 18.750351
v 21.896650 -0.000003 18.635651
v 22.298651 -0.000003 19.066351
v 22.184000 -0.000003 18.520351
v 22.500000 -0.000003 18.836349
v 22.528650 -0.000003 18.549000
v 22.011349 -0.000003 19.871000
v 20.144001 -0.000003 19.497650
v 20.057350 -0.000003 20.732998
v 19.914000 -0.000003 21.049000
v 21.322001 -0.000004 22.686998
v 19.798649 -0.000003 21.364998
v 21.063349 -0.000004 22.830999
v 19.684000 -0.000004 21.652351
v 20.804651 -0.000004 22.974350
v 19.482649 -0.000004 21.882351
v 20.517349 -0.000004 23.146999
v 20.258652 -0.000004 23.290350
v 19.252649 -0.000004 22.054998
v 19.023350 -0.000004 22.227650
v 20.000000 -0.000004 23.520351
v 18.764650 -0.000004 22.370998
v 18.506001 -0.000004 22.572350
v 18.276001 -0.000004 22.744350
v 18.017351 -0.000004 22.888351
v 17.787350 -0.000004 23.060999
v 17.557350 -0.000004 23.232998
v 22.614651 -0.000003 19.871000
v 22.701349 -0.000003 19.583649
v 23.276001 -0.000003 19.296350
v 22.787350 -0.000003 19.296350
v 22.873348 -0.000003 18.980350
v 23.419350 -0.000003 18.980350
v 22.959999 -0.000003 18.693001
v 23.620651 -0.000003 18.750351
v 23.046000 -0.000003 18.377001
v 23.190001 -0.000003 18.118351
v 23.850651 -0.000003 18.520351
v 23.448000 -0.000003 17.974350
v 24.052000 -0.000003 18.290350
v 23.534651 -0.000003 17.687000
v 24.281349 -0.000003 18.061001
v 24.482651 -0.000003 17.830999
v 23.534651 -0.000003 17.399651
v 24.626652 -0.000003 17.514999
v 23.620651 -0.000003 17.083649
v 24.741348 -0.000003 17.198351
v 24.425350 -0.000003 16.652351
v 23.764650 -0.000003 16.767651
v 24.023350 -0.000003 16.566351
v 24.684000 -0.000003 16.882351
v 24.138000 -0.000003 19.009001
v 23.908001 -0.000003 19.210350
v 24.655350 -0.000003 18.664351
v 27.011349 -0.000004 26.882351
v 26.149349 -0.000003 17.629650
v 25.488651 -0.000003 17.945650
v 25.660650 -0.000003 17.715649
v 25.862000 -0.000003 17.485649
v 25.690001 -0.000003 17.428350
v 25.776001 -0.000003 17.256351
v 25.690001 -0.000003 17.141001
v 25.776001 -0.000003 16.940350
v 25.690001 -0.000003 16.853649
v 25.833349 -0.000003 16.652351
v 25.402000 -0.000003 16.710350
v 25.000000 -0.000003 16.307650
v 25.114651 -0.000003 16.594999
v 25.517349 -0.000003 15.474350
v 26.091999 -0.000003 16.509001
v 25.804651 -0.000003 15.388350
v 26.379349 -0.000003 15.474350
v 26.120651 -0.000002 15.273000
v 26.638000 -0.000003 15.675650
v 26.580650 -0.000003 16.451649
v 26.982651 -0.000003 15.733000
v 26.954000 -0.000003 16.537649
v 27.270000 -0.000003 15.790350
v 27.355999 -0.000003 16.623650
v 27.557350 -0.000003 15.905649
v 27.672651 -0.000003 16.537649
v 27.873348 -0.000003 16.020351
v 28.160650 -0.000003 16.135651
v 27.873348 -0.000003 16.796350
v 28.448000 -0.000003 16.250351
v 28.103350 -0.000003 17.026350
v 28.735350 -0.000003 16.365000
v 29.080650 -0.000003 16.509001
v 29.368000 -0.000003 16.681650
v 29.626652 -0.000003 16.825001
v 29.885349 -0.000003 16.997650
v 27.730000 -0.000003 17.083649
v 27.355999 -0.000003 17.026350
v 27.011349 -0.000003 17.026350
v 26.638000 -0.000003 16.969000
v 26.149349 -0.000003 17.342350
v 26.322001 -0.000003 17.055000
v 30.258652 -0.000003 17.026350
v 31.695349 -0.000003 17.112350
v 30.603350 -0.000003 16.997650
v 31.408001 -0.000003 16.969000
v 31.063349 -0.000003 16.825001
v 31.322001 -0.000003 16.652351
v 32.931351 -0.000003 17.198351
v 32.183998 -0.000003 16.969000
v 32.414001 -0.000003 16.767651
v 32.959999 -0.000003 16.882351
v 32.701347 -0.000003 16.652351
v 34.598000 -0.000003 17.974350
v 33.563351 -0.000003 17.169649
v 34.453999 -0.000003 17.658350
v 34.310001 -0.000003 17.399651
v 34.166649 -0.000003 17.141001
v 33.821999 -0.000003 17.021349
v 34.856651 -0.000003 18.606350
v 34.741348 -0.000003 18.290350
v 34.971348 -0.000003 18.894350
v 27.327349 -0.000004 26.997650
v 35.085999 -0.000003 19.181650
v 27.643349 -0.000004 27.112350
v 35.316002 -0.000003 19.785000
v 35.230000 -0.000003 19.497650
v 35.574650 -0.000003 20.388351
v 35.459999 -0.000003 20.072350
v 35.689350 -0.000003 20.675650
v 35.804649 -0.000003 20.962999
v 35.919350 -0.000003 21.278999
v 36.034653 -0.000004 21.594999
v 27.787350 -0.000005 31.566351
v 36.580650 -0.000004 24.640999
v 36.178001 -0.000004 21.910999
v 36.379349 -0.000004 22.169649
v 36.552002 -0.000004 22.399651
v 36.752651 -0.000004 22.658350
v 36.810001 -0.000004 24.468998
v 37.011349 -0.000004 22.830999
v 37.098000 -0.000004 24.296350
v 37.270000 -0.000004 23.002998
v 37.528652 -0.000004 23.146999
v 37.385349 -0.000004 24.238998
v 37.730000 -0.000004 24.210350
v 38.103348 -0.000004 23.175650
v 37.988651 -0.000004 24.382351
v 38.333351 -0.000004 24.440350
v 39.023350 -0.000004 23.146999
v 39.511349 -0.000004 23.089649
v 41.408001 -0.000004 25.302351
v 41.552002 -0.000004 24.985649
v 39.798653 -0.000004 23.002998
v 41.695351 -0.000004 24.698351
v 40.316002 -0.000004 22.974350
v 41.752647 -0.000004 23.836349
v 41.091999 -0.000004 22.945650
v 41.896648 -0.000004 23.520351
v 42.040001 -0.000004 23.261650
v 42.126652 -0.000004 22.945650
v 41.839352 -0.000004 24.382351
v 41.954002 -0.000004 24.066351
v 41.321999 -0.000004 25.618351
v 38.218651 -0.000004 24.727001
v 41.494003 -0.000004 25.848351
v 37.931351 -0.000004 24.842350
v 40.287354 -0.000005 32.083649
v 40.660648 -0.000005 31.968998
v 41.695351 -0.000004 26.135651
v 40.947998 -0.000005 31.968998
v 41.235352 -0.000005 31.997650
v 42.787354 -0.000005 29.899651
v 41.982651 -0.000004 26.307650
v 42.241348 -0.000004 26.451649
v 42.500000 -0.000004 26.594999
v 43.045998 -0.000005 28.721649
v 43.017349 -0.000005 29.008999
v 42.902000 -0.000005 29.583649
v 42.988647 -0.000005 29.296350
v 42.758652 -0.000004 26.738998
v 42.988647 -0.000004 26.968998
v 43.045998 -0.000004 27.256351
v 43.218651 -0.000005 28.491650
v 43.362003 -0.000005 28.232998
v 43.362003 -0.000004 27.399651
v 43.534653 -0.000005 27.945650
v 43.534653 -0.000005 27.658350
v 41.609348 -0.000005 31.910999
v 42.758652 -0.000005 30.215649
v 41.925350 -0.000005 31.882351
v 44.080650 -0.000005 31.968998
v 43.333351 -0.000005 30.417000
v 43.103352 -0.000005 30.215649
v 43.591999 -0.000005 30.560350
v 44.080650 -0.000005 31.652351
v 44.080650 -0.000005 31.364998
v 44.137997 -0.000005 30.417000
v 43.850651 -0.000005 30.388351
v 44.368000 -0.000005 31.278999
v 44.425350 -0.000005 30.445650
v 44.770004 -0.000005 30.646999
v 44.655350 -0.000005 31.278999
v 44.942650 -0.000005 31.106350
v 45.000000 -0.000005 30.818998
v 42.212646 -0.000006 34.008999
v 43.218651 -0.000006 34.037651
v 42.931351 -0.000006 34.123650
v 42.528648 -0.000006 34.123650
v 43.994003 -0.000005 33.146999
v 44.166649 -0.000005 32.917000
v 44.339352 -0.000005 32.687000
v 44.310001 -0.000005 32.140999
v 44.540001 -0.000005 32.457001
v 44.568649 -0.000005 32.169651
v 44.425350 -0.000005 31.853649
v 43.908001 -0.000005 33.434349
v 43.505997 -0.000006 33.951649
v 43.821999 -0.000006 34.037651
v 44.080650 -0.000005 33.664352
v 44.252647 -0.000006 33.923000
v 43.936649 -0.000006 34.324997
v 44.339352 -0.000006 34.324997
v 44.511353 -0.000006 34.094997
v 41.552002 -0.000005 32.945648
v 41.580650 -0.000005 33.232998
v 41.552002 -0.000005 33.520351
v 41.494003 -0.000006 33.836349
v 41.695351 -0.000005 32.112350
v 41.552002 -0.000005 32.658352
v 41.552002 -0.000005 32.370998
v 37.442650 -0.000004 24.956999
v 40.028648 -0.000005 32.227001
v 37.902000 -0.000005 32.687000
v 39.741348 -0.000005 32.370998
v 39.482651 -0.000005 32.514999
v 39.223999 -0.000005 32.658352
v 37.500000 -0.000005 32.658352
v 37.183998 -0.000005 32.629650
v 37.098000 -0.000004 24.956999
v 36.896652 -0.000005 32.687000
v 36.609348 -0.000005 32.744350
v 36.752651 -0.000004 24.870998
v 36.206650 -0.000005 32.830997
v 35.862000 -0.000005 32.917000
v 35.574650 -0.000005 32.802349
v 35.316002 -0.000005 32.974350
v 28.649349 -0.000005 32.687000
v 28.390652 -0.000005 32.112350
v 28.506001 -0.000005 32.399651
v 28.362000 -0.000005 31.824999
v 28.103350 -0.000005 31.681650
v 34.798653 -0.000005 33.319000
v 35.085999 -0.000005 33.146999
v 31.236000 -0.000006 34.037651
v 34.281349 -0.000005 33.664352
v 34.568649 -0.000005 33.491650
v 31.522652 -0.000006 34.094997
v 33.936649 -0.000006 33.864998
v 32.730000 -0.000006 34.267651
v 33.764652 -0.000006 34.094997
v 33.591999 -0.000006 34.324997
v 32.959999 -0.000006 34.497650
v 33.419350 -0.000006 34.583649
v 33.132000 -0.000006 34.727001
v 32.414001 -0.000006 34.296349
v 31.695349 -0.000006 34.324997
v 31.925350 -0.000006 34.497650
v 32.356651 -0.000006 34.583649
v 28.793350 -0.000005 33.002998
v 29.109348 -0.000005 33.549000
v 30.919350 -0.000006 34.094997
v 30.287350 -0.000006 34.123650
v 29.310650 -0.000006 33.778999
v 29.396650 -0.000006 34.066349
v 28.908001 -0.000005 33.319000
v 27.471350 -0.000005 31.451649
v 27.184000 -0.000005 31.307650
v 27.068651 -0.000004 27.342350
v 26.925350 -0.000005 31.164351
v 26.465349 -0.000004 27.456999
v 26.781349 -0.000004 27.342350
v 26.408001 -0.000005 27.744350
v 26.235350 -0.000005 28.002998
v 25.976650 -0.000005 28.175650
v 26.493999 -0.000005 31.106350
v 25.718651 -0.000005 28.348351
v 25.488651 -0.000005 28.549000
v 25.459999 -0.000005 30.646999
v 25.258652 -0.000005 28.750351
v 25.028650 -0.000005 28.951649
v 24.855999 -0.000005 29.181650
v 24.684000 -0.000005 29.439650
v 24.511349 -0.000005 29.698351
v 25.172651 -0.000005 30.790350
v 24.339350 -0.000005 29.956999
v 24.942650 -0.000005 30.962999
v 24.166651 -0.000005 30.186998
v 23.993999 -0.000005 30.474350
v 24.770000 -0.000005 31.221649
v 23.850651 -0.000005 30.790350
v 24.540001 -0.000005 31.422998
v 23.764650 -0.000005 31.077650
v 24.310650 -0.000005 31.594999
v 23.677999 -0.000005 31.364998
v 24.080650 -0.000005 31.796350
v 23.649349 -0.000005 31.652351
v 23.879349 -0.000005 32.026352
v 23.620651 -0.000005 31.940350
v 23.649349 -0.000005 32.227001
v 25.948000 -0.000005 31.049000
v 25.488651 -0.000005 31.077650
v 25.287350 -0.000005 30.905649
v 25.201349 -0.000005 31.164351
v 25.086000 -0.000005 31.164351
v 25.000000 -0.000005 31.422998
v 24.914000 -0.000005 31.394350
v 24.770000 -0.000005 31.681650
v 24.942650 -0.000003 15.991650
v 25.230000 -0.000003 15.503000
v 24.942650 -0.000003 15.675650
v 24.942650 -0.000003 15.359650
v 22.098000 -0.000004 22.974350
v 21.781349 -0.000004 23.118351
v 21.522652 -0.000004 23.261650
v 21.264650 -0.000004 23.405649
v 23.362000 -0.000005 28.376999
v 19.339350 -0.000005 31.250351
v 19.052000 -0.000005 31.422998
v 18.448000 -0.000005 31.652351
v 18.793350 -0.000005 31.566351
v 18.074650 -0.000005 31.738998
v 17.787350 -0.000005 31.796350
v 11.954000 -0.000004 25.732998
v 5.546000 -0.000005 32.198349
vn 0.000000 1.000000 0.000000
usemtl None
s off
f 1//1 2//1 3//1
f 1//1 4//1 2//1
f 4//1 5//1 2//1
f 5//1 4//1 6//1
f 5//1 6//1 7//1
f 7//1 6//1 8//1
f 6//1 9//1 8//1
f 9//1 10//1 8//1
f 8//1 10//1 11//1
f 10//1 12//1 11//1
f 11//1 12//1 13//1
f 12//1 14//1 13//1
f 13//1 14//1 15//1
f 14//1 16//1 15//1
f 15//1 16//1 17//1
f 17//1 16//1 18//1
f 18//1 16//1 19//1
f 20//1 18//1 19//1
f 21//1 20//1 19//1
f 21//1 19//1 22//1
f 20//1 21//1 23//1
f 20//1 23//1 24//1
f 24//1 23//1 25//1
f 26//1 25//1 23//1
f 27//1 25//1 26//1
f 28//1 27//1 26//1
f 29//1 28//1 26//1
f 26//1 30//1 29//1
f 26//1 31//1 30//1
f 26//1 32//1 31//1
f 26//1 33//1 32//1
f 34//1 28//1 29//1
f 35//1 34//1 29//1
f 36//1 35//1 29//1
f 36//1 29//1 37//1
f 38//1 36//1 37//1
f 38//1 37//1 39//1
f 39//1 37//1 40//1
f 41//1 39//1 40//1
f 41//1 40//1 42//1
f 42//1 40//1 43//1
f 43//1 40//1 44//1
f 45//1 43//1 44//1
f 46//1 45//1 44//1
f 47//1 46//1 44//1
f 44//1 48//1 47//1
f 49//1 47//1 48//1
f 49//1 48//1 50//1
f 50//1 48//1 51//1
f 52//1 50//1 51//1
f 52//1 51//1 53//1
f 53//1 51//1 54//1
f 54//1 51//1 55//1
f 55//1 51//1 56//1
f 56//1 51//1 57//1
f 51//1 58//1 57//1
f 51//1 59//1 58//1
f 59//1 60//1 58//1
f 61//1 59//1 51//1
f 62//1 61//1 51//1
f 63//1 62//1 51//1
f 64//1 63//1 51//1
f 65//1 64//1 51//1
f 65//1 51//1 66//1
f 51//1 67//1 66//1
f 51//1 68//1 67//1
f 51//1 69//1 68//1
f 51//1 70//1 69//1
f 70//1 51//1 71//1
f 70//1 71//1 72//1
f 51//1 73//1 71//1
f 73//1 74//1 71//1
f 75//1 71//1 74//1
f 76//1 75//1 74//1
f 76//1 74//1 77//1
f 77//1 78//1 76//1
f 77//1 79//1 78//1
f 77//1 80//1 79//1
f 80//1 81//1 79//1
f 82//1 79//1 81//1
f 81//1 83//1 82//1
f 82//1 83//1 84//1
f 83//1 81//1 85//1
f 86//1 83//1 85//1
f 87//1 86//1 85//1
f 88//1 87//1 85//1
f 89//1 86//1 87//1
f 90//1 89//1 87//1
f 91//1 90//1 87//1
f 92//1 89//1 90//1
f 93//1 92//1 90//1
f 94//1 93//1 90//1
f 95//1 93//1 94//1
f 95//1 94//1 96//1
f 94//1 97//1 96//1
f 94//1 98//1 97//1
f 97//1 98//1 99//1
f 98//1 100//1 99//1
f 99//1 100//1 101//1
f 100//1 102//1 101//1
f 102//1 103//1 101//1
f 104//1 101//1 103//1
f 104//1 103//1 105//1
f 105//1 44//1 104//1
f 105//1 48//1 44//1
f 105//1 77//1 48//1
f 77//1 74//1 48//1
f 102//1 106//1 103//1
f 106//1 107//1 103//1
f 106//1 81//1 107//1
f 81//1 80//1 107//1
f 108//1 92//1 93//1
f 109//1 108//1 93//1
f 110//1 108//1 109//1
f 111//1 110//1 109//1
f 112//1 110//1 111//1
f 113//1 112//1 111//1
f 114//1 79//1 82//1
f 82//1 115//1 114//1
f 116//1 64//1 65//1
f 65//1 117//1 116//1
f 117//1 118//1 116//1
f 119//1 116//1 118//1
f 120//1 118//1 117//1
f 120//1 117//1 121//1
f 122//1 120//1 121//1
f 123//1 122//1 121//1
f 124//1 122//1 123//1
f 124//1 123//1 125//1
f 126//1 124//1 125//1
f 125//1 127//1 126//1
f 128//1 127//1 125//1
f 129//1 128//1 125//1
f 128//1 129//1 130//1
f 130//1 129//1 131//1
f 131//1 132//1 130//1
f 128//1 133//1 127//1
f 133//1 134//1 127//1
f 134//1 135//1 127//1
f 135//1 136//1 127//1
f 136//1 137//1 127//1
f 137//1 138//1 127//1
f 139//1 127//1 138//1
f 139//1 138//1 140//1
f 139//1 140//1 141//1
f 142//1 139//1 141//1
f 143//1 142//1 141//1
f 144//1 143//1 141//1
f 144//1 141//1 145//1
f 144//1 145//1 146//1
f 144//1 146//1 147//1
f 148//1 144//1 147//1
f 147//1 149//1 148//1
f 150//1 148//1 149//1
f 151//1 148//1 150//1
f 152//1 151//1 150//1
f 152//1 153//1 151//1
f 154//1 153//1 152//1
f 154//1 152//1 155//1
f 154//1 155//1 156//1
f 156//1 157//1 154//1
f 157//1 158//1 154//1
f 154//1 158//1 159//1
f 157//1 156//1 160//1
f 160//1 156//1 161//1
f 161//1 162//1 160//1
f 162//1 163//1 160//1
f 163//1 164//1 160//1
f 164//1 165//1 160//1
f 165//1 166//1 160//1
f 166//1 167//1 160//1
f 168//1 167//1 166//1
f 167//1 168//1 169//1
f 169//1 170//1 167//1
f 171//1 170//1 169//1
f 172//1 171//1 169//1
f 173//1 171//1 172//1
f 174//1 173//1 172//1
f 175//1 173//1 174//1
f 174//1 176//1 175//1
f 176//1 177//1 175//1
f 178//1 176//1 174//1
f 179//1 178//1 174//1
f 179//1 174//1 180//1
f 179//1 180//1 181//1
f 181//1 180//1 182//1
f 183//1 182//1 180//1
f 180//1 184//1 183//1
f 185//1 183//1 184//1
f 184//1 180//1 186//1
f 187//1 184//1 186//1
f 187//1 186//1 188//1
f 187//1 188//1 189//1
f 189//1 188//1 190//1
f 190//1 188//1 191//1
f 190//1 191//1 192//1
f 192//1 191//1 193//1
f 192//1 193//1 194//1
f 180//1 195//1 186//1
f 196//1 182//1 183//1
f 179//1 197//1 178//1
f 178//1 197//1 198//1
f 178//1 198//1 199//1
f 199//1 198//1 200//1
f 199//1 200//1 201//1
f 200//1 202//1 201//1
f 201//1 202//1 203//1
f 202//1 204//1 203//1
f 204//1 205//1 203//1
f 206//1 205//1 204//1
f 207//1 206//1 204//1
f 208//1 206//1 207//1
f 209//1 206//1 208//1
f 210//1 209//1 208//1
f 211//1 209//1 210//1
f 212//1 209//1 211//1
f 212//1 124//1 209//1
f 212//1 213//1 124//1
f 213//1 214//1 124//1
f 215//1 124//1 214//1
f 124//1 215//1 122//1
f 168//1 216//1 169//1
f 217//1 216//1 168//1
f 218//1 217//1 168//1
f 219//1 217//1 218//1
f 219//1 218//1 220//1
f 218//1 221//1 220//1
f 220//1 221//1 222//1
f 222//1 221//1 223//1
f 224//1 222//1 223//1
f 224//1 223//1 225//1
f 223//1 226//1 225//1
f 225//1 226//1 227//1
f 226//1 228//1 227//1
f 227//1 228//1 229//1
f 228//1 230//1 229//1
f 229//1 230//1 231//1
f 232//1 229//1 231//1
f 232//1 231//1 233//1
f 234//1 232//1 233//1
f 233//1 235//1 234//1
f 235//1 236//1 234//1
f 236//1 237//1 234//1
f 237//1 236//1 238//1
f 236//1 235//1 239//1
f 240//1 166//1 165//1
f 241//1 166//1 240//1
f 165//1 164//1 242//1
f 162//1 161//1 243//1
f 243//1 244//1 162//1
f 245//1 162//1 244//1
f 246//1 245//1 244//1
f 246//1 244//1 247//1
f 246//1 247//1 248//1
f 248//1 247//1 249//1
f 248//1 249//1 250//1
f 249//1 251//1 250//1
f 250//1 251//1 252//1
f 251//1 253//1 252//1
f 254//1 252//1 253//1
f 253//1 255//1 254//1
f 255//1 256//1 254//1
f 257//1 255//1 253//1
f 253//1 258//1 257//1
f 258//1 259//1 257//1
f 259//1 258//1 260//1
f 259//1 260//1 261//1
f 260//1 258//1 262//1
f 258//1 263//1 262//1
f 263//1 264//1 262//1
f 265//1 264//1 263//1
f 265//1 266//1 264//1
f 265//1 267//1 266//1
f 267//1 268//1 266//1
f 267//1 269//1 268//1
f 269//1 270//1 268//1
f 269//1 271//1 270//1
f 269//1 272//1 271//1
f 271//1 272//1 273//1
f 272//1 274//1 273//1
f 273//1 274//1 275//1
f 274//1 276//1 275//1
f 274//1 277//1 276//1
f 274//1 278//1 277//1
f 274//1 279//1 278//1
f 244//1 279//1 274//1
f 274//1 280//1 244//1
f 281//1 244//1 280//1
f 281//1 282//1 244//1
f 282//1 283//1 244//1
f 284//1 244//1 283//1
f 283//1 285//1 284//1
f 279//1 244//1 286//1
f 286//1 244//1 287//1
f 286//1 287//1 288//1
f 288//1 287//1 289//1
f 288//1 289//1 290//1
f 290//1 289//1 291//1
f 287//1 244//1 292//1
f 287//1 292//1 293//1
f 293//1 292//1 294//1
f 294//1 292//1 295//1
f 294//1 295//1 296//1
f 292//1 244//1 243//1
f 243//1 297//1 292//1
f 297//1 298//1 292//1
f 298//1 297//1 299//1
f 298//1 299//1 300//1
f 298//1 300//1 301//1
f 298//1 301//1 302//1
f 297//1 243//1 303//1
f 304//1 297//1 303//1
f 243//1 305//1 303//1
f 243//1 306//1 305//1
f 305//1 306//1 307//1
f 306//1 308//1 307//1
f 307//1 308//1 309//1
f 307//1 309//1 310//1
f 309//1 308//1 311//1
f 309//1 311//1 312//1
f 308//1 313//1 311//1
f 308//1 314//1 313//1
f 308//1 315//1 314//1
f 308//1 316//1 315//1
f 308//1 317//1 316//1
f 316//1 317//1 318//1
f 316//1 318//1 319//1
f 319//1 318//1 320//1
f 320//1 318//1 321//1
f 318//1 322//1 321//1
f 318//1 323//1 322//1
f 323//1 324//1 322//1
f 323//1 325//1 324//1
f 325//1 326//1 324//1
f 326//1 325//1 327//1
f 325//1 328//1 327//1
f 328//1 329//1 327//1
f 329//1 330//1 327//1
f 331//1 330//1 329//1
f 331//1 332//1 330//1
f 332//1 333//1 330//1
f 333//1 332//1 334//1
f 334//1 332//1 335//1
f 336//1 334//1 335//1
f 337//1 334//1 336//1
f 336//1 338//1 337//1
f 339//1 337//1 338//1
f 339//1 338//1 340//1
f 339//1 340//1 341//1
f 341//1 340//1 342//1
f 342//1 343//1 341//1
f 343//1 344//1 341//1
f 338//1 345//1 340//1
f 345//1 346//1 340//1
f 332//1 347//1 335//1
f 348//1 347//1 332//1
f 348//1 349//1 347//1
f 349//1 348//1 350//1
f 349//1 350//1 351//1
f 352//1 349//1 351//1
f 349//1 352//1 353//1
f 352//1 354//1 353//1
f 353//1 354//1 355//1
f 353//1 355//1 356//1
f 353//1 356//1 357//1
f 357//1 356//1 358//1
f 358//1 356//1 359//1
f 360//1 359//1 356//1
f 356//1 361//1 360//1
f 356//1 362//1 361//1
f 362//1 363//1 361//1
f 364//1 359//1 360//1
f 364//1 360//1 365//1
f 365//1 360//1 366//1
f 360//1 367//1 366//1
f 367//1 368//1 366//1
f 366//1 368//1 369//1
f 368//1 370//1 369//1
f 369//1 370//1 371//1
f 356//1 355//1 372//1
f 373//1 356//1 372//1
f 372//1 374//1 373//1
f 374//1 375//1 373//1
f 373//1 375//1 376//1
f 373//1 376//1 377//1
f 376//1 375//1 378//1
f 378//1 375//1 379//1
f 378//1 379//1 380//1
f 378//1 380//1 381//1
f 378//1 381//1 382//1
f 380//1 383//1 381//1
f 384//1 381//1 383//1
f 384//1 383//1 385//1
f 383//1 386//1 385//1
f 386//1 387//1 385//1
f 387//1 388//1 385//1
f 374//1 389//1 375//1
f 390//1 375//1 389//1
f 389//1 391//1 390//1
f 392//1 391//1 389//1
f 375//1 390//1 393//1
f 393//1 394//1 375//1
f 375//1 394//1 395//1
f 375//1 395//1 396//1
f 395//1 397//1 396//1
f 397//1 398//1 396//1
f 396//1 398//1 399//1
f 393//1 390//1 400//1
f 390//1 401//1 400//1
f 402//1 400//1 401//1
f 402//1 403//1 400//1
f 402//1 404//1 403//1
f 402//1 405//1 404//1
f 404//1 405//1 406//1
f 406//1 407//1 404//1
f 374//1 408//1 389//1
f 408//1 409//1 389//1
f 410//1 389//1 409//1
f 411//1 389//1 410//1
f 408//1 374//1 412//1
f 413//1 408//1 412//1
f 414//1 413//1 412//1
f 351//1 350//1 415//1
f 415//1 416//1 351//1
f 415//1 417//1 416//1
f 417//1 418//1 416//1
f 417//1 419//1 418//1
f 417//1 420//1 419//1
f 421//1 417//1 415//1
f 422//1 421//1 415//1
f 422//1 415//1 423//1
f 424//1 422//1 423//1
f 425//1 424//1 423//1
f 426//1 425//1 423//1
f 427//1 425//1 426//1
f 426//1 428//1 427//1
f 318//1 428//1 426//1
f 429//1 428//1 318//1
f 430//1 429//1 318//1
f 431//1 430//1 318//1
f 318//1 432//1 431//1
f 432//1 433//1 431//1
f 434//1 432//1 318//1
f 318//1 435//1 434//1
f 317//1 435//1 318//1
f 431//1 436//1 430//1
f 436//1 437//1 430//1
f 431//1 438//1 436//1
f 436//1 438//1 439//1
f 436//1 439//1 440//1
f 438//1 441//1 439//1
f 439//1 441//1 442//1
f 441//1 443//1 442//1
f 443//1 444//1 442//1
f 445//1 444//1 443//1
f 446//1 445//1 443//1
f 447//1 445//1 446//1
f 448//1 447//1 446//1
f 449//1 443//1 441//1
f 450//1 449//1 441//1
f 451//1 449//1 450//1
f 452//1 449//1 451//1
f 431//1 453//1 438//1
f 453//1 454//1 438//1
f 438//1 454//1 455//1
f 456//1 455//1 454//1
f 454//1 457//1 456//1
f 457//1 458//1 456//1
f 454//1 453//1 459//1
f 460//1 317//1 308//1
f 460//1 308//1 461//1
f 461//1 308//1 462//1
f 463//1 461//1 462//1
f 464//1 463//1 462//1
f 465//1 464//1 462//1
f 464//1 466//1 463//1
f 466//1 467//1 463//1
f 467//1 468//1 463//1
f 468//1 469//1 463//1
f 470//1 469//1 468//1
f 470//1 471//1 469//1
f 472//1 469//1 471//1
f 472//1 471//1 473//1
f 474//1 472//1 473//1
f 475//1 472//1 474//1
f 476//1 472//1 475//1
f 476//1 477//1 472//1
f 477//1 478//1 472//1
f 479//1 478//1 477//1
f 480//1 478//1 479//1
f 481//1 480//1 479//1
f 482//1 480//1 481//1
f 483//1 480//1 482//1
f 484//1 483//1 482//1
f 485//1 483//1 484//1
f 484//1 486//1 485//1
f 486//1 487//1 485//1
f 486//1 488//1 487//1
f 488//1 489//1 487//1
f 490//1 489//1 488//1
f 491//1 489//1 490//1
f 492//1 491//1 490//1
f 493//1 491//1 492//1
f 469//1 472//1 494//1
f 472//1 495//1 494//1
f 496//1 495//1 472//1
f 497//1 495//1 496//1
f 497//1 496//1 498//1
f 498//1 499//1 497//1
f 499//1 498//1 500//1
f 500//1 501//1 499//1
f 257//1 502//1 255//1
f 503//1 502//1 257//1
f 504//1 502//1 503//1
f 504//1 503//1 505//1
f 144//1 148//1 506//1
f 506//1 507//1 144//1
f 144//1 507//1 508//1
f 509//1 144//1 508//1
f 138//1 510//1 140//1
f 65//1 511//1 117//1
f 65//1 512//1 511//1
f 512//1 65//1 513//1
f 512//1 513//1 514//1
f 65//1 515//1 513//1
f 65//1 516//1 515//1
f 52//1 517//1 50//1
f 6//1 4//1 518//1
