^G:\DOWNLOADS\TINYOBJLOADER-MASTER\TINYOBJLOADER-MASTER\CMAKEFILES\3.2.2\COMPILERIDCXX\DEBUG\CMAKECXXCOMPILERID.OBJ
G:\DOWNLOADS\TINYOBJLOADER-MASTER\TINYOBJLOADER-MASTER\CMAKEFILES\3.2.2\COMPILERIDCXX\COMPILERIDCXX.EXE
G:\DOWNLOADS\TINYOBJLOADER-MASTER\TINYOBJLOADER-MASTER\CMAKEFILES\3.2.2\COMPILERIDCXX\DEBUG\COMPILERIDCXX.EXE.INTERMEDIATE.MANIFEST
