material Red
{
	receive_shadows off
	technique
	{
		pass
		{
			texture_unit
			{
				colour_op_ex source1 src_manual src_current 1.0 0.0 0.0
			}
		}
	}
}

material Green
{
	receive_shadows off
	technique
	{
		pass
		{
			texture_unit
			{
				colour_op_ex source1 src_manual src_current 0.0 1.0 0.0
			}
		}
	}
}

material Blue
{
	receive_shadows off
	technique
	{
		pass
		{
			texture_unit
			{
				colour_op_ex source1 src_manual src_current 0.0 0.0 1.0
			}
		}
	}
}

material Yellow
{
	receive_shadows off
	technique
	{
		pass
		{
			texture_unit
			{
				colour_op_ex source1 src_manual src_current 1.0 1.0 0.0
			}
		}
	}
}

material Magenta
{
	receive_shadows off
	technique
	{
		pass
		{
			texture_unit
			{
				colour_op_ex source1 src_manual src_current 1.0 0.0 1.0
			}
		}
	}
}

material Cyan
{
	receive_shadows off
	technique
	{
		pass
		{
			texture_unit
			{
				colour_op_ex source1 src_manual src_current 0.0 1.0 1.0
			}
		}
	}
}

material White
{
	receive_shadows off
	technique
	{
		pass
		{
			texture_unit
			{
				colour_op_ex source1 src_manual src_current 1.0 1.0 1.0
			}
		}
	}
}

material Black
{
	receive_shadows off
	technique
	{
		pass
		{
			texture_unit
			{
				colour_op_ex source1 src_manual src_current 0.0 0.0 0.0
			}
		}
	}
}

material DarkGrey
{
	receive_shadows off
	technique
	{
		pass
		{
			texture_unit
			{
				colour_op_ex source1 src_manual src_current 0.2 0.2 0.2
			}
		}
	}
}

material LightGrey
{
	receive_shadows off
	technique
	{
		pass
		{
			texture_unit
			{
				colour_op_ex source1 src_manual src_current 0.8 0.8 0.8
			}
		}
	}
}